{
  "type": "service_account",
  "project_id": "barrier-34a55",
  "private_key_id": "24510f7605c38826814c9884e52001c11e357ca7",
  "private_key": "-----BEGIN PRIVATE KEY-----\nMIIEvgIBADANBgkqhkiG9w0BAQEFAASCBKgwggSkAgEAAoIBAQCTwdG2Kd/PYaBI\nMRUNTCdZWL/imKncHKmJ6WYgGbSGHjDK5Q3ohrKCeZmtEIVJToVUmnUD1QB6B7Qs\ndMOzoZcwi0MIpG6LDo5Dk/fXouEKJnM5e+UlciuMamJegn+iD5RrWFI7hraXGR6w\ny3HzyYtZm+cOE+5hNCDi7SihmkTi6/Sr2FgeSzkfhTK2OxQvDVIAclJXNQOdMFSj\nw/UsAslF37/USUprSodAaJCKHJp08IfwfGEfziRQ1Or9EnLt98zA/J1gtHjzazBi\najqVpVy9MYtxg7Z/kDCABmlTd1P7qc7+97w9G+Fl8ACfc4Uqgk+hUZgRz+wjVIx3\ncHGRCFtFAgMBAAECggEAD0uA6dpr0IvKi66I/1diu1z0gABNlPtikWQXrjr69Ocr\nJdWQGwHWeKsdvUx4f54hLyDN/BeQdRFXFUMA/xc7D0tbJQngZ4SaNWSbwzaZFPPl\n+Y1Zqwame2KHzEC19ZCnTHVYDdFkFUAEbUiiAxpZ0mzQ/iQSCP3caaEjE5dkihi6\ndVMVT4SO7OQNBU8+hPoi3ULF/2dXnkqlN9Po4yUm5F6vh0oN2IKr6OeEwE6nWQSa\nhknnh7Wqdp1PVyC7fvuLVCkmhGvtYZ2OLCppits1FoPURvLuMQSoJymXGrlI0ZcB\nUya628N0/N79ccGC6ws3uZVRQUZ1kCjEuaBc/J1OAQKBgQDGMp6faR54uewCsY3s\n/JiJz5i5xFYetN5sRCZk4IFAjeHRDym9vjgJEvWshsAHCKqQiynUA1x6v1UjWdav\nK1by3h8Ew7dNyEDKOCCk2mRU5lIoidh8JDAVDrZzTPfRE02hgP+UW15OSKX9wqoT\nenRiNAnS8X0ivRsm7MA73T1adwKBgQC+2VF4nAw03tg1s+liz7bmtEKHlf1r8K/2\nxU8LzWQslfhaBChpj3fCkiZMxkCDb3HofoOKCAWBQYH4YDY7UXT9hRyW5L7pczSr\n1gn5J8EIYMzdqwT/CcItHB1POJi8daZU9TZraQykAfgcy+uuzICKOhI6nQNvL/KS\nIXCQYeUrIwKBgErLd4j5BoLQxvwNPV4dxQLc0Onp6gYUg4uf/E09XAmcgYd/jWUJ\nj+P8v7Gn+HevEY8StWpJCnFYGy0IDjh0xo9Iu7P0mAxGcgzeOZN8xzgy4vZhbs0K\nawrHTpschLjl6/ny0ICQKnqod9vXxo8rOxiEQuDUOUEO1FxQJAtzZl/pAoGBAJDj\nN0DTZ0j0LTyH+5TykK6RBzkcG6rIrS4xGROiuHxI1qSwJ2YMbyUeA0mh8PRXtSiG\nc6Jk+JjqfJttn35lFuYpGk1MF8vvlHsoIaYwEhIkOyPGZCKi6/GHOJEeLIZW4xH4\nn3nn5JrWi+CAx8qKosNN1uz8qtDMm+Fo1aYnS+31AoGBAJlAKLg3MANaCZNAQGGF\n4SYhbT3AnhT5vxomKJsy4PiiA+Vuo+yYAfJHOPw3wfUAtOx0zFShBrQKhRtbBPkp\ndqGCcgoejq/8f6IZyA5jQWp5H+0np/PiRagB+6q9QCmBjjjdBEBPQLuVGXzUlGiy\nslrg9mbElJSRHqbUIM0rTcwp\n-----END PRIVATE KEY-----\n",
  "client_email": "gemini@barrier-34a55.iam.gserviceaccount.com",
  "client_id": "108580439687620631129",
  "auth_uri": "https://accounts.google.com/o/oauth2/auth",
  "token_uri": "https://oauth2.googleapis.com/token",
  "auth_provider_x509_cert_url": "https://www.googleapis.com/oauth2/v1/certs",
  "client_x509_cert_url": "https://www.googleapis.com/robot/v1/metadata/x509/gemini%40barrier-34a55.iam.gserviceaccount.com",
  "universe_domain": "googleapis.com"
}
